\relax 
\catcode `:\active 
\catcode `;\active 
\catcode `!\active 
\catcode `?\active 
\select@language{french}
\@writefile{toc}{\select@language{french}}
\@writefile{lof}{\select@language{french}}
\@writefile{lot}{\select@language{french}}
\@writefile{toc}{\contentsline {chapter}{\numberline {1}Installation des paquets}{2}}
\@writefile{lof}{\addvspace {10\p@ }}
\@writefile{lot}{\addvspace {10\p@ }}
\@writefile{toc}{\contentsline {paragraph}{}{2}}
\@writefile{toc}{\contentsline {paragraph}{}{2}}
\@writefile{toc}{\contentsline {section}{\numberline {1.1}Apache}{3}}
\@writefile{toc}{\contentsline {subsection}{\numberline {1.1.1}Installation}{3}}
\@writefile{toc}{\contentsline {subsection}{\numberline {1.1.2}Test}{3}}
\@writefile{toc}{\contentsline {paragraph}{}{3}}
\@writefile{toc}{\contentsline {section}{\numberline {1.2}Php7}{4}}
\@writefile{toc}{\contentsline {subsection}{\numberline {1.2.1}Installation}{4}}
\@writefile{toc}{\contentsline {subsection}{\numberline {1.2.2}Test}{4}}
\@writefile{toc}{\contentsline {paragraph}{}{4}}
\@writefile{toc}{\contentsline {section}{\numberline {1.3}Php7 Mysql}{5}}
\@writefile{toc}{\contentsline {subsection}{\numberline {1.3.1}Installation}{5}}
\@writefile{toc}{\contentsline {subsection}{\numberline {1.3.2}Test}{5}}
\@writefile{toc}{\contentsline {section}{\numberline {1.4}Serveur sql}{6}}
\@writefile{toc}{\contentsline {subsection}{\numberline {1.4.1}Installation}{6}}
\@writefile{toc}{\contentsline {subsection}{\numberline {1.4.2}Test}{6}}
