\select@language {french}
\contentsline {chapter}{\numberline {1}Installation des paquets}{2}
\contentsline {paragraph}{}{2}
\contentsline {paragraph}{}{2}
\contentsline {section}{\numberline {1.1}Apache}{3}
\contentsline {subsection}{\numberline {1.1.1}Installation}{3}
\contentsline {subsection}{\numberline {1.1.2}Test}{3}
\contentsline {paragraph}{}{3}
\contentsline {section}{\numberline {1.2}Php7}{4}
\contentsline {subsection}{\numberline {1.2.1}Installation}{4}
\contentsline {subsection}{\numberline {1.2.2}Test}{4}
\contentsline {paragraph}{}{4}
\contentsline {section}{\numberline {1.3}Php7 Mysql}{5}
\contentsline {subsection}{\numberline {1.3.1}Installation}{5}
\contentsline {subsection}{\numberline {1.3.2}Test}{5}
\contentsline {section}{\numberline {1.4}Serveur sql}{6}
\contentsline {subsection}{\numberline {1.4.1}Installation}{6}
\contentsline {subsection}{\numberline {1.4.2}Test}{6}
